^C:\USERS\LIM\DESKTOP\AI\BUCKLAND_SOURCECODE\VS8 PROJECTS\BUCKLAND_CHAPTER3-STEERING BEHAVIORS\DEBUG\CGDI.SBR|C:\USERS\LIM\DESKTOP\AI\BUCKLAND_SOURCECODE\VS8 PROJECTS\BUCKLAND_CHAPTER3-STEERING BEHAVIORS\DEBUG\GAMEWORLD.SBR|C:\USERS\LIM\DESKTOP\AI\BUCKLAND_SOURCECODE\VS8 PROJECTS\BUCKLAND_CHAPTER3-STEERING BEHAVIORS\DEBUG\INIFILELOADERBASE.SBR|C:\USERS\LIM\DESKTOP\AI\BUCKLAND_SOURCECODE\VS8 PROJECTS\BUCKLAND_CHAPTER3-STEERING BEHAVIORS\DEBUG\MAIN.SBR|C:\USERS\LIM\DESKTOP\AI\BUCKLAND_SOURCECODE\VS8 PROJECTS\BUCKLAND_CHAPTER3-STEERING BEHAVIORS\DEBUG\OBSTACLE.SBR|C:\USERS\LIM\DESKTOP\AI\BUCKLAND_SOURCECODE\VS8 PROJECTS\BUCKLAND_CHAPTER3-STEERING BEHAVIORS\DEBUG\PARAMLOADER.SBR|C:\USERS\LIM\DESKTOP\AI\BUCKLAND_SOURCECODE\VS8 PROJECTS\BUCKLAND_CHAPTER3-STEERING BEHAVIORS\DEBUG\PATH.SBR|C:\USERS\LIM\DESKTOP\AI\BUCKLAND_SOURCECODE\VS8 PROJECTS\BUCKLAND_CHAPTER3-STEERING BEHAVIORS\DEBUG\PRECISIONTIMER.SBR|C:\USERS\LIM\DESKTOP\AI\BUCKLAND_SOURCECODE\VS8 PROJECTS\BUCKLAND_CHAPTER3-STEERING BEHAVIORS\DEBUG\STEERINGBEHAVIORS.SBR|C:\USERS\LIM\DESKTOP\AI\BUCKLAND_SOURCECODE\VS8 PROJECTS\BUCKLAND_CHAPTER3-STEERING BEHAVIORS\DEBUG\VECTOR2D.SBR|C:\USERS\LIM\DESKTOP\AI\BUCKLAND_SOURCECODE\VS8 PROJECTS\BUCKLAND_CHAPTER3-STEERING BEHAVIORS\DEBUG\VEHICLE.SBR|C:\USERS\LIM\DESKTOP\AI\BUCKLAND_SOURCECODE\VS8 PROJECTS\BUCKLAND_CHAPTER3-STEERING BEHAVIORS\DEBUG\WINDOWUTILS.SBR
C:\WINDOWS\GLOBALIZATION\SORTING\SORTDEFAULT.NLS
C:\WINDOWS\SYSTEM32\TZRES.DLL
C:\USERS\LIM\DESKTOP\AI\BUCKLAND_SOURCECODE\VS8 PROJECTS\BUCKLAND_CHAPTER3-STEERING BEHAVIORS\DEBUG\GAMEWORLD.SBR
C:\USERS\LIM\DESKTOP\AI\BUCKLAND_SOURCECODE\VS8 PROJECTS\BUCKLAND_CHAPTER3-STEERING BEHAVIORS\DEBUG\MAIN.SBR
C:\USERS\LIM\DESKTOP\AI\BUCKLAND_SOURCECODE\VS8 PROJECTS\BUCKLAND_CHAPTER3-STEERING BEHAVIORS\DEBUG\STEERINGBEHAVIORS.SBR
C:\USERS\LIM\DESKTOP\AI\BUCKLAND_SOURCECODE\VS8 PROJECTS\BUCKLAND_CHAPTER3-STEERING BEHAVIORS\DEBUG\VEHICLE.SBR
C:\USERS\LIM\DESKTOP\AI\BUCKLAND_SOURCECODE\VS8 PROJECTS\BUCKLAND_CHAPTER3-STEERING BEHAVIORS\DEBUG\CGDI.SBR
C:\USERS\LIM\DESKTOP\AI\BUCKLAND_SOURCECODE\VS8 PROJECTS\BUCKLAND_CHAPTER3-STEERING BEHAVIORS\DEBUG\OBSTACLE.SBR
C:\USERS\LIM\DESKTOP\AI\BUCKLAND_SOURCECODE\VS8 PROJECTS\BUCKLAND_CHAPTER3-STEERING BEHAVIORS\DEBUG\PATH.SBR
^C:\USERS\LIM\DESKTOP\AI\BUCKLAND_SOURCECODE\VS8 PROJECTS\VER2 추격자 에너지 상태에 따른 도망자 움직임\DEBUG\CGDI.SBR|C:\USERS\LIM\DESKTOP\AI\BUCKLAND_SOURCECODE\VS8 PROJECTS\VER2 추격자 에너지 상태에 따른 도망자 움직임\DEBUG\GAMEWORLD.SBR|C:\USERS\LIM\DESKTOP\AI\BUCKLAND_SOURCECODE\VS8 PROJECTS\VER2 추격자 에너지 상태에 따른 도망자 움직임\DEBUG\INIFILELOADERBASE.SBR|C:\USERS\LIM\DESKTOP\AI\BUCKLAND_SOURCECODE\VS8 PROJECTS\VER2 추격자 에너지 상태에 따른 도망자 움직임\DEBUG\MAIN.SBR|C:\USERS\LIM\DESKTOP\AI\BUCKLAND_SOURCECODE\VS8 PROJECTS\VER2 추격자 에너지 상태에 따른 도망자 움직임\DEBUG\OBSTACLE.SBR|C:\USERS\LIM\DESKTOP\AI\BUCKLAND_SOURCECODE\VS8 PROJECTS\VER2 추격자 에너지 상태에 따른 도망자 움직임\DEBUG\PARAMLOADER.SBR|C:\USERS\LIM\DESKTOP\AI\BUCKLAND_SOURCECODE\VS8 PROJECTS\VER2 추격자 에너지 상태에 따른 도망자 움직임\DEBUG\PATH.SBR|C:\USERS\LIM\DESKTOP\AI\BUCKLAND_SOURCECODE\VS8 PROJECTS\VER2 추격자 에너지 상태에 따른 도망자 움직임\DEBUG\PRECISIONTIMER.SBR|C:\USERS\LIM\DESKTOP\AI\BUCKLAND_SOURCECODE\VS8 PROJECTS\VER2 추격자 에너지 상태에 따른 도망자 움직임\DEBUG\STEERINGBEHAVIORS.SBR|C:\USERS\LIM\DESKTOP\AI\BUCKLAND_SOURCECODE\VS8 PROJECTS\VER2 추격자 에너지 상태에 따른 도망자 움직임\DEBUG\VECTOR2D.SBR|C:\USERS\LIM\DESKTOP\AI\BUCKLAND_SOURCECODE\VS8 PROJECTS\VER2 추격자 에너지 상태에 따른 도망자 움직임\DEBUG\VEHICLE.SBR|C:\USERS\LIM\DESKTOP\AI\BUCKLAND_SOURCECODE\VS8 PROJECTS\VER2 추격자 에너지 상태에 따른 도망자 움직임\DEBUG\WINDOWUTILS.SBR
C:\WINDOWS\GLOBALIZATION\SORTING\SORTDEFAULT.NLS
C:\WINDOWS\SYSTEM32\TZRES.DLL
^C:\USERS\LIM\DESKTOP\AI\BUCKLAND_SOURCECODE\VS8 PROJECTS\1. 추격자 에너지 상태에 따른 도망자 움직임\DEBUG\CGDI.SBR|C:\USERS\LIM\DESKTOP\AI\BUCKLAND_SOURCECODE\VS8 PROJECTS\1. 추격자 에너지 상태에 따른 도망자 움직임\DEBUG\GAMEWORLD.SBR|C:\USERS\LIM\DESKTOP\AI\BUCKLAND_SOURCECODE\VS8 PROJECTS\1. 추격자 에너지 상태에 따른 도망자 움직임\DEBUG\INIFILELOADERBASE.SBR|C:\USERS\LIM\DESKTOP\AI\BUCKLAND_SOURCECODE\VS8 PROJECTS\1. 추격자 에너지 상태에 따른 도망자 움직임\DEBUG\MAIN.SBR|C:\USERS\LIM\DESKTOP\AI\BUCKLAND_SOURCECODE\VS8 PROJECTS\1. 추격자 에너지 상태에 따른 도망자 움직임\DEBUG\OBSTACLE.SBR|C:\USERS\LIM\DESKTOP\AI\BUCKLAND_SOURCECODE\VS8 PROJECTS\1. 추격자 에너지 상태에 따른 도망자 움직임\DEBUG\PARAMLOADER.SBR|C:\USERS\LIM\DESKTOP\AI\BUCKLAND_SOURCECODE\VS8 PROJECTS\1. 추격자 에너지 상태에 따른 도망자 움직임\DEBUG\PATH.SBR|C:\USERS\LIM\DESKTOP\AI\BUCKLAND_SOURCECODE\VS8 PROJECTS\1. 추격자 에너지 상태에 따른 도망자 움직임\DEBUG\PRECISIONTIMER.SBR|C:\USERS\LIM\DESKTOP\AI\BUCKLAND_SOURCECODE\VS8 PROJECTS\1. 추격자 에너지 상태에 따른 도망자 움직임\DEBUG\STEERINGBEHAVIORS.SBR|C:\USERS\LIM\DESKTOP\AI\BUCKLAND_SOURCECODE\VS8 PROJECTS\1. 추격자 에너지 상태에 따른 도망자 움직임\DEBUG\VECTOR2D.SBR|C:\USERS\LIM\DESKTOP\AI\BUCKLAND_SOURCECODE\VS8 PROJECTS\1. 추격자 에너지 상태에 따른 도망자 움직임\DEBUG\VEHICLE.SBR|C:\USERS\LIM\DESKTOP\AI\BUCKLAND_SOURCECODE\VS8 PROJECTS\1. 추격자 에너지 상태에 따른 도망자 움직임\DEBUG\WINDOWUTILS.SBR
C:\WINDOWS\GLOBALIZATION\SORTING\SORTDEFAULT.NLS
C:\WINDOWS\SYSTEM32\TZRES.DLL
^C:\USERS\LIM\DESKTOP\AI\BUCKLAND_SOURCECODE\VS8 PROJECTS\3. 질량,크기,속도 다르게하여 배회하기\DEBUG\CGDI.SBR|C:\USERS\LIM\DESKTOP\AI\BUCKLAND_SOURCECODE\VS8 PROJECTS\3. 질량,크기,속도 다르게하여 배회하기\DEBUG\GAMEWORLD.SBR|C:\USERS\LIM\DESKTOP\AI\BUCKLAND_SOURCECODE\VS8 PROJECTS\3. 질량,크기,속도 다르게하여 배회하기\DEBUG\INIFILELOADERBASE.SBR|C:\USERS\LIM\DESKTOP\AI\BUCKLAND_SOURCECODE\VS8 PROJECTS\3. 질량,크기,속도 다르게하여 배회하기\DEBUG\MAIN.SBR|C:\USERS\LIM\DESKTOP\AI\BUCKLAND_SOURCECODE\VS8 PROJECTS\3. 질량,크기,속도 다르게하여 배회하기\DEBUG\OBSTACLE.SBR|C:\USERS\LIM\DESKTOP\AI\BUCKLAND_SOURCECODE\VS8 PROJECTS\3. 질량,크기,속도 다르게하여 배회하기\DEBUG\PARAMLOADER.SBR|C:\USERS\LIM\DESKTOP\AI\BUCKLAND_SOURCECODE\VS8 PROJECTS\3. 질량,크기,속도 다르게하여 배회하기\DEBUG\PATH.SBR|C:\USERS\LIM\DESKTOP\AI\BUCKLAND_SOURCECODE\VS8 PROJECTS\3. 질량,크기,속도 다르게하여 배회하기\DEBUG\PRECISIONTIMER.SBR|C:\USERS\LIM\DESKTOP\AI\BUCKLAND_SOURCECODE\VS8 PROJECTS\3. 질량,크기,속도 다르게하여 배회하기\DEBUG\STEERINGBEHAVIORS.SBR|C:\USERS\LIM\DESKTOP\AI\BUCKLAND_SOURCECODE\VS8 PROJECTS\3. 질량,크기,속도 다르게하여 배회하기\DEBUG\VECTOR2D.SBR|C:\USERS\LIM\DESKTOP\AI\BUCKLAND_SOURCECODE\VS8 PROJECTS\3. 질량,크기,속도 다르게하여 배회하기\DEBUG\VEHICLE.SBR|C:\USERS\LIM\DESKTOP\AI\BUCKLAND_SOURCECODE\VS8 PROJECTS\3. 질량,크기,속도 다르게하여 배회하기\DEBUG\WINDOWUTILS.SBR
C:\WINDOWS\GLOBALIZATION\SORTING\SORTDEFAULT.NLS
C:\WINDOWS\SYSTEM32\TZRES.DLL
