^C:\USERS\LIM\DESKTOP\AI\BUCKLAND_SOURCECODE\VS8 PROJECTS\BUCKLAND_CHAPTER3-STEERING BEHAVIORS\DEBUG\STEERING.EXE.INTERMEDIATE.MANIFEST
C:\USERS\LIM\DESKTOP\AI\BUCKLAND_SOURCECODE\VS8 PROJECTS\BUCKLAND_CHAPTER3-STEERING BEHAVIORS\DEBUG\STEERING.EXE.EMBED.MANIFEST
^C:\USERS\LIM\DESKTOP\AI\BUCKLAND_SOURCECODE\VS8 PROJECTS\VER2 추격자 에너지 상태에 따른 도망자 움직임\DEBUG\STEERING.EXE.INTERMEDIATE.MANIFEST
C:\USERS\LIM\DESKTOP\AI\BUCKLAND_SOURCECODE\VS8 PROJECTS\VER2 추격자 에너지 상태에 따른 도망자 움직임\DEBUG\STEERING.EXE.EMBED.MANIFEST
^C:\USERS\LIM\DESKTOP\AI\BUCKLAND_SOURCECODE\VS8 PROJECTS\1. 추격자 에너지 상태에 따른 도망자 움직임\DEBUG\STEERING.EXE.INTERMEDIATE.MANIFEST
^C:\USERS\LIM\DESKTOP\AI\BUCKLAND_SOURCECODE\VS8 PROJECTS\3. 질량,크기,속도 다르게하여 배회하기\DEBUG\STEERING.EXE.INTERMEDIATE.MANIFEST
