^C:\USERS\LIM\DESKTOP\AI\BUCKLAND_SOURCECODE\VS8 PROJECTS\BUCKLAND_CHAPTER3-STEERING BEHAVIORS\SCRIPT1.RC
/D _DEBUG /D _VC80_UPGRADE=0x0600 /l"0x0809" /nologo /fo".\Debug\Script1.res" Script1.rc /D _DEBUG /D _VC80_UPGRADE=0x0600 /l"0x0809" /nologo /fo".\Debug\Script1.res" C:\USERS\LIM\DESKTOP\AI\BUCKLAND_SOURCECODE\VS8 PROJECTS\BUCKLAND_CHAPTER3-STEERING BEHAVIORS\SCRIPT1.RC
^C:\USERS\LIM\DESKTOP\AI\BUCKLAND_SOURCECODE\VS8 PROJECTS\BUCKLAND_CHAPTER3-STEERING BEHAVIORS\DEBUG\STEERING_MANIFEST.RC
/nologo /fo".\Debug\Steering.exe.embed.manifest.res" .\Debug\Steering_manifest.rc /nologo /fo".\Debug\Steering.exe.embed.manifest.res" C:\USERS\LIM\DESKTOP\AI\BUCKLAND_SOURCECODE\VS8 PROJECTS\BUCKLAND_CHAPTER3-STEERING BEHAVIORS\DEBUG\STEERING_MANIFEST.RC
^C:\USERS\LIM\DESKTOP\AI\BUCKLAND_SOURCECODE\VS8 PROJECTS\VER2 추격자 에너지 상태에 따른 도망자 움직임\SCRIPT1.RC
/D _DEBUG /D _VC80_UPGRADE=0x0600 /l"0x0809" /nologo /fo".\Debug\Script1.res" Script1.rc /D _DEBUG /D _VC80_UPGRADE=0x0600 /l"0x0809" /nologo /fo".\Debug\Script1.res" C:\USERS\LIM\DESKTOP\AI\BUCKLAND_SOURCECODE\VS8 PROJECTS\VER2 추격자 에너지 상태에 따른 도망자 움직임\SCRIPT1.RC
^C:\USERS\LIM\DESKTOP\AI\BUCKLAND_SOURCECODE\VS8 PROJECTS\VER2 추격자 에너지 상태에 따른 도망자 움직임\DEBUG\STEERING_MANIFEST.RC
/nologo /fo".\Debug\Steering.exe.embed.manifest.res" .\Debug\Steering_manifest.rc /nologo /fo".\Debug\Steering.exe.embed.manifest.res" C:\USERS\LIM\DESKTOP\AI\BUCKLAND_SOURCECODE\VS8 PROJECTS\VER2 추격자 에너지 상태에 따른 도망자 움직임\DEBUG\STEERING_MANIFEST.RC
^C:\USERS\LIM\DESKTOP\AI\BUCKLAND_SOURCECODE\VS8 PROJECTS\1. 추격자 에너지 상태에 따른 도망자 움직임\SCRIPT1.RC
/D _DEBUG /D _VC80_UPGRADE=0x0600 /l"0x0809" /nologo /fo".\Debug\Script1.res" Script1.rc /D _DEBUG /D _VC80_UPGRADE=0x0600 /l"0x0809" /nologo /fo".\Debug\Script1.res" C:\USERS\LIM\DESKTOP\AI\BUCKLAND_SOURCECODE\VS8 PROJECTS\1. 추격자 에너지 상태에 따른 도망자 움직임\SCRIPT1.RC
^C:\USERS\LIM\DESKTOP\AI\BUCKLAND_SOURCECODE\VS8 PROJECTS\1. 추격자 에너지 상태에 따른 도망자 움직임\DEBUG\STEERING_MANIFEST.RC
/nologo /fo".\Debug\Steering.exe.embed.manifest.res" .\Debug\Steering_manifest.rc /nologo /fo".\Debug\Steering.exe.embed.manifest.res" C:\USERS\LIM\DESKTOP\AI\BUCKLAND_SOURCECODE\VS8 PROJECTS\1. 추격자 에너지 상태에 따른 도망자 움직임\DEBUG\STEERING_MANIFEST.RC
^C:\USERS\LIM\DESKTOP\AI\BUCKLAND_SOURCECODE\VS8 PROJECTS\3. 질량,크기,속도 다르게하여 배회하기\SCRIPT1.RC
/D _DEBUG /D _VC80_UPGRADE=0x0600 /l"0x0809" /nologo /fo".\Debug\Script1.res" Script1.rc /D _DEBUG /D _VC80_UPGRADE=0x0600 /l"0x0809" /nologo /fo".\Debug\Script1.res" C:\USERS\LIM\DESKTOP\AI\BUCKLAND_SOURCECODE\VS8 PROJECTS\3. 질량,크기,속도 다르게하여 배회하기\SCRIPT1.RC
^C:\USERS\LIM\DESKTOP\AI\BUCKLAND_SOURCECODE\VS8 PROJECTS\3. 질량,크기,속도 다르게하여 배회하기\DEBUG\STEERING_MANIFEST.RC
/nologo /fo".\Debug\Steering.exe.embed.manifest.res" .\Debug\Steering_manifest.rc /nologo /fo".\Debug\Steering.exe.embed.manifest.res" C:\USERS\LIM\DESKTOP\AI\BUCKLAND_SOURCECODE\VS8 PROJECTS\3. 질량,크기,속도 다르게하여 배회하기\DEBUG\STEERING_MANIFEST.RC
