^C:\USERS\LIM\DESKTOP\AI\BUCKLAND_SOURCECODE\VS8 PROJECTS\BUCKLAND_CHAPTER3-STEERING BEHAVIORS\GAMEWORLD.CPP|C:\USERS\LIM\DESKTOP\AI\BUCKLAND_SOURCECODE\VS8 PROJECTS\BUCKLAND_CHAPTER3-STEERING BEHAVIORS\MAIN.CPP|C:\USERS\LIM\DESKTOP\AI\BUCKLAND_SOURCECODE\VS8 PROJECTS\BUCKLAND_CHAPTER3-STEERING BEHAVIORS\OBSTACLE.CPP|C:\USERS\LIM\DESKTOP\AI\BUCKLAND_SOURCECODE\VS8 PROJECTS\BUCKLAND_CHAPTER3-STEERING BEHAVIORS\PARAMLOADER.CPP|C:\USERS\LIM\DESKTOP\AI\BUCKLAND_SOURCECODE\VS8 PROJECTS\BUCKLAND_CHAPTER3-STEERING BEHAVIORS\PATH.CPP|C:\USERS\LIM\DESKTOP\AI\BUCKLAND_SOURCECODE\VS8 PROJECTS\BUCKLAND_CHAPTER3-STEERING BEHAVIORS\STEERINGBEHAVIORS.CPP|C:\USERS\LIM\DESKTOP\AI\BUCKLAND_SOURCECODE\VS8 PROJECTS\BUCKLAND_CHAPTER3-STEERING BEHAVIORS\VEHICLE.CPP|C:\USERS\LIM\DESKTOP\AI\BUCKLAND_SOURCECODE\VS8 PROJECTS\COMMON\2D\VECTOR2D.CPP|C:\USERS\LIM\DESKTOP\AI\BUCKLAND_SOURCECODE\VS8 PROJECTS\COMMON\MISC\CGDI.CPP|C:\USERS\LIM\DESKTOP\AI\BUCKLAND_SOURCECODE\VS8 PROJECTS\COMMON\MISC\INIFILELOADERBASE.CPP|C:\USERS\LIM\DESKTOP\AI\BUCKLAND_SOURCECODE\VS8 PROJECTS\COMMON\MISC\WINDOWUTILS.CPP|C:\USERS\LIM\DESKTOP\AI\BUCKLAND_SOURCECODE\VS8 PROJECTS\COMMON\TIME\PRECISIONTIMER.CPP
C:\USERS\LIM\DESKTOP\AI\BUCKLAND_SOURCECODE\VS8 PROJECTS\BUCKLAND_CHAPTER3-STEERING BEHAVIORS\DEBUG\WINDOWUTILS.SBR
C:\USERS\LIM\DESKTOP\AI\BUCKLAND_SOURCECODE\VS8 PROJECTS\BUCKLAND_CHAPTER3-STEERING BEHAVIORS\DEBUG\VECTOR2D.SBR
C:\USERS\LIM\DESKTOP\AI\BUCKLAND_SOURCECODE\VS8 PROJECTS\BUCKLAND_CHAPTER3-STEERING BEHAVIORS\DEBUG\PRECISIONTIMER.SBR
C:\USERS\LIM\DESKTOP\AI\BUCKLAND_SOURCECODE\VS8 PROJECTS\BUCKLAND_CHAPTER3-STEERING BEHAVIORS\DEBUG\PATH.SBR
C:\USERS\LIM\DESKTOP\AI\BUCKLAND_SOURCECODE\VS8 PROJECTS\BUCKLAND_CHAPTER3-STEERING BEHAVIORS\DEBUG\PARAMLOADER.SBR
C:\USERS\LIM\DESKTOP\AI\BUCKLAND_SOURCECODE\VS8 PROJECTS\BUCKLAND_CHAPTER3-STEERING BEHAVIORS\DEBUG\OBSTACLE.SBR
C:\USERS\LIM\DESKTOP\AI\BUCKLAND_SOURCECODE\VS8 PROJECTS\BUCKLAND_CHAPTER3-STEERING BEHAVIORS\DEBUG\INIFILELOADERBASE.SBR
C:\USERS\LIM\DESKTOP\AI\BUCKLAND_SOURCECODE\VS8 PROJECTS\BUCKLAND_CHAPTER3-STEERING BEHAVIORS\DEBUG\CGDI.SBR
C:\USERS\LIM\DESKTOP\AI\BUCKLAND_SOURCECODE\VS8 PROJECTS\BUCKLAND_CHAPTER3-STEERING BEHAVIORS\DEBUG\VEHICLE.SBR
C:\USERS\LIM\DESKTOP\AI\BUCKLAND_SOURCECODE\VS8 PROJECTS\BUCKLAND_CHAPTER3-STEERING BEHAVIORS\DEBUG\STEERINGBEHAVIORS.SBR
C:\USERS\LIM\DESKTOP\AI\BUCKLAND_SOURCECODE\VS8 PROJECTS\BUCKLAND_CHAPTER3-STEERING BEHAVIORS\DEBUG\MAIN.SBR
C:\USERS\LIM\DESKTOP\AI\BUCKLAND_SOURCECODE\VS8 PROJECTS\BUCKLAND_CHAPTER3-STEERING BEHAVIORS\DEBUG\GAMEWORLD.SBR
C:\USERS\LIM\DESKTOP\AI\BUCKLAND_SOURCECODE\VS8 PROJECTS\BUCKLAND_CHAPTER3-STEERING BEHAVIORS\DEBUG\GAMEWORLD.OBJ
C:\USERS\LIM\DESKTOP\AI\BUCKLAND_SOURCECODE\VS8 PROJECTS\BUCKLAND_CHAPTER3-STEERING BEHAVIORS\DEBUG\MAIN.OBJ
C:\USERS\LIM\DESKTOP\AI\BUCKLAND_SOURCECODE\VS8 PROJECTS\BUCKLAND_CHAPTER3-STEERING BEHAVIORS\DEBUG\STEERINGBEHAVIORS.OBJ
C:\USERS\LIM\DESKTOP\AI\BUCKLAND_SOURCECODE\VS8 PROJECTS\BUCKLAND_CHAPTER3-STEERING BEHAVIORS\DEBUG\VEHICLE.OBJ
C:\USERS\LIM\DESKTOP\AI\BUCKLAND_SOURCECODE\VS8 PROJECTS\BUCKLAND_CHAPTER3-STEERING BEHAVIORS\DEBUG\CGDI.OBJ
C:\USERS\LIM\DESKTOP\AI\BUCKLAND_SOURCECODE\VS8 PROJECTS\BUCKLAND_CHAPTER3-STEERING BEHAVIORS\DEBUG\INIFILELOADERBASE.OBJ
C:\USERS\LIM\DESKTOP\AI\BUCKLAND_SOURCECODE\VS8 PROJECTS\BUCKLAND_CHAPTER3-STEERING BEHAVIORS\DEBUG\OBSTACLE.OBJ
C:\USERS\LIM\DESKTOP\AI\BUCKLAND_SOURCECODE\VS8 PROJECTS\BUCKLAND_CHAPTER3-STEERING BEHAVIORS\DEBUG\PARAMLOADER.OBJ
C:\USERS\LIM\DESKTOP\AI\BUCKLAND_SOURCECODE\VS8 PROJECTS\BUCKLAND_CHAPTER3-STEERING BEHAVIORS\DEBUG\PATH.OBJ
C:\USERS\LIM\DESKTOP\AI\BUCKLAND_SOURCECODE\VS8 PROJECTS\BUCKLAND_CHAPTER3-STEERING BEHAVIORS\DEBUG\PRECISIONTIMER.OBJ
C:\USERS\LIM\DESKTOP\AI\BUCKLAND_SOURCECODE\VS8 PROJECTS\BUCKLAND_CHAPTER3-STEERING BEHAVIORS\DEBUG\VECTOR2D.OBJ
C:\USERS\LIM\DESKTOP\AI\BUCKLAND_SOURCECODE\VS8 PROJECTS\BUCKLAND_CHAPTER3-STEERING BEHAVIORS\DEBUG\WINDOWUTILS.OBJ
^C:\USERS\LIM\DESKTOP\AI\BUCKLAND_SOURCECODE\VS8 PROJECTS\BUCKLAND_CHAPTER3-STEERING BEHAVIORS\GAMEWORLD.CPP
C:\USERS\LIM\DESKTOP\AI\BUCKLAND_SOURCECODE\VS8 PROJECTS\BUCKLAND_CHAPTER3-STEERING BEHAVIORS\DEBUG\VC100.PDB
C:\USERS\LIM\DESKTOP\AI\BUCKLAND_SOURCECODE\VS8 PROJECTS\BUCKLAND_CHAPTER3-STEERING BEHAVIORS\DEBUG\GAMEWORLD.SBR
^C:\USERS\LIM\DESKTOP\AI\BUCKLAND_SOURCECODE\VS8 PROJECTS\BUCKLAND_CHAPTER3-STEERING BEHAVIORS\MAIN.CPP
C:\USERS\LIM\DESKTOP\AI\BUCKLAND_SOURCECODE\VS8 PROJECTS\BUCKLAND_CHAPTER3-STEERING BEHAVIORS\DEBUG\VC100.PDB
^C:\USERS\LIM\DESKTOP\AI\BUCKLAND_SOURCECODE\VS8 PROJECTS\BUCKLAND_CHAPTER3-STEERING BEHAVIORS\STEERINGBEHAVIORS.CPP
C:\USERS\LIM\DESKTOP\AI\BUCKLAND_SOURCECODE\VS8 PROJECTS\BUCKLAND_CHAPTER3-STEERING BEHAVIORS\DEBUG\VC100.PDB
^C:\USERS\LIM\DESKTOP\AI\BUCKLAND_SOURCECODE\VS8 PROJECTS\BUCKLAND_CHAPTER3-STEERING BEHAVIORS\VEHICLE.CPP
C:\USERS\LIM\DESKTOP\AI\BUCKLAND_SOURCECODE\VS8 PROJECTS\BUCKLAND_CHAPTER3-STEERING BEHAVIORS\DEBUG\VC100.PDB
C:\USERS\LIM\DESKTOP\AI\BUCKLAND_SOURCECODE\VS8 PROJECTS\BUCKLAND_CHAPTER3-STEERING BEHAVIORS\DEBUG\VEHICLE.SBR
C:\USERS\LIM\DESKTOP\AI\BUCKLAND_SOURCECODE\VS8 PROJECTS\BUCKLAND_CHAPTER3-STEERING BEHAVIORS\DEBUG\VEHICLE.OBJ
^C:\USERS\LIM\DESKTOP\AI\BUCKLAND_SOURCECODE\VS8 PROJECTS\COMMON\MISC\CGDI.CPP
C:\USERS\LIM\DESKTOP\AI\BUCKLAND_SOURCECODE\VS8 PROJECTS\BUCKLAND_CHAPTER3-STEERING BEHAVIORS\DEBUG\VC100.PDB
C:\USERS\LIM\DESKTOP\AI\BUCKLAND_SOURCECODE\VS8 PROJECTS\VER2 추격자 에너지 상태에 따른 도망자 움직임\DEBUG\VC100.PDB
^C:\USERS\LIM\DESKTOP\AI\BUCKLAND_SOURCECODE\VS8 PROJECTS\COMMON\MISC\INIFILELOADERBASE.CPP
C:\USERS\LIM\DESKTOP\AI\BUCKLAND_SOURCECODE\VS8 PROJECTS\BUCKLAND_CHAPTER3-STEERING BEHAVIORS\DEBUG\VC100.PDB
C:\USERS\LIM\DESKTOP\AI\BUCKLAND_SOURCECODE\VS8 PROJECTS\VER2 추격자 에너지 상태에 따른 도망자 움직임\DEBUG\VC100.PDB
^C:\USERS\LIM\DESKTOP\AI\BUCKLAND_SOURCECODE\VS8 PROJECTS\BUCKLAND_CHAPTER3-STEERING BEHAVIORS\OBSTACLE.CPP
C:\USERS\LIM\DESKTOP\AI\BUCKLAND_SOURCECODE\VS8 PROJECTS\BUCKLAND_CHAPTER3-STEERING BEHAVIORS\DEBUG\VC100.PDB
^C:\USERS\LIM\DESKTOP\AI\BUCKLAND_SOURCECODE\VS8 PROJECTS\BUCKLAND_CHAPTER3-STEERING BEHAVIORS\PARAMLOADER.CPP
C:\USERS\LIM\DESKTOP\AI\BUCKLAND_SOURCECODE\VS8 PROJECTS\BUCKLAND_CHAPTER3-STEERING BEHAVIORS\DEBUG\VC100.PDB
^C:\USERS\LIM\DESKTOP\AI\BUCKLAND_SOURCECODE\VS8 PROJECTS\BUCKLAND_CHAPTER3-STEERING BEHAVIORS\PATH.CPP
C:\USERS\LIM\DESKTOP\AI\BUCKLAND_SOURCECODE\VS8 PROJECTS\BUCKLAND_CHAPTER3-STEERING BEHAVIORS\DEBUG\VC100.PDB
^C:\USERS\LIM\DESKTOP\AI\BUCKLAND_SOURCECODE\VS8 PROJECTS\COMMON\TIME\PRECISIONTIMER.CPP
C:\USERS\LIM\DESKTOP\AI\BUCKLAND_SOURCECODE\VS8 PROJECTS\BUCKLAND_CHAPTER3-STEERING BEHAVIORS\DEBUG\VC100.PDB
C:\USERS\LIM\DESKTOP\AI\BUCKLAND_SOURCECODE\VS8 PROJECTS\VER2 추격자 에너지 상태에 따른 도망자 움직임\DEBUG\VC100.PDB
^C:\USERS\LIM\DESKTOP\AI\BUCKLAND_SOURCECODE\VS8 PROJECTS\COMMON\2D\VECTOR2D.CPP
C:\USERS\LIM\DESKTOP\AI\BUCKLAND_SOURCECODE\VS8 PROJECTS\BUCKLAND_CHAPTER3-STEERING BEHAVIORS\DEBUG\VC100.PDB
C:\USERS\LIM\DESKTOP\AI\BUCKLAND_SOURCECODE\VS8 PROJECTS\VER2 추격자 에너지 상태에 따른 도망자 움직임\DEBUG\VC100.PDB
^C:\USERS\LIM\DESKTOP\AI\BUCKLAND_SOURCECODE\VS8 PROJECTS\COMMON\MISC\WINDOWUTILS.CPP
C:\USERS\LIM\DESKTOP\AI\BUCKLAND_SOURCECODE\VS8 PROJECTS\BUCKLAND_CHAPTER3-STEERING BEHAVIORS\DEBUG\VC100.PDB
C:\USERS\LIM\DESKTOP\AI\BUCKLAND_SOURCECODE\VS8 PROJECTS\VER2 추격자 에너지 상태에 따른 도망자 움직임\DEBUG\VC100.PDB
^C:\USERS\LIM\DESKTOP\AI\BUCKLAND_SOURCECODE\VS8 PROJECTS\BUCKLAND_CHAPTER3-STEERING BEHAVIORS\GAMEWORLD.CPP|C:\USERS\LIM\DESKTOP\AI\BUCKLAND_SOURCECODE\VS8 PROJECTS\BUCKLAND_CHAPTER3-STEERING BEHAVIORS\VEHICLE.CPP
C:\USERS\LIM\DESKTOP\AI\BUCKLAND_SOURCECODE\VS8 PROJECTS\BUCKLAND_CHAPTER3-STEERING BEHAVIORS\DEBUG\VEHICLE.SBR
C:\USERS\LIM\DESKTOP\AI\BUCKLAND_SOURCECODE\VS8 PROJECTS\BUCKLAND_CHAPTER3-STEERING BEHAVIORS\DEBUG\GAMEWORLD.SBR
C:\USERS\LIM\DESKTOP\AI\BUCKLAND_SOURCECODE\VS8 PROJECTS\BUCKLAND_CHAPTER3-STEERING BEHAVIORS\DEBUG\GAMEWORLD.OBJ
C:\USERS\LIM\DESKTOP\AI\BUCKLAND_SOURCECODE\VS8 PROJECTS\BUCKLAND_CHAPTER3-STEERING BEHAVIORS\DEBUG\VEHICLE.OBJ
^C:\USERS\LIM\DESKTOP\AI\BUCKLAND_SOURCECODE\VS8 PROJECTS\BUCKLAND_CHAPTER3-STEERING BEHAVIORS\GAMEWORLD.CPP|C:\USERS\LIM\DESKTOP\AI\BUCKLAND_SOURCECODE\VS8 PROJECTS\BUCKLAND_CHAPTER3-STEERING BEHAVIORS\MAIN.CPP|C:\USERS\LIM\DESKTOP\AI\BUCKLAND_SOURCECODE\VS8 PROJECTS\BUCKLAND_CHAPTER3-STEERING BEHAVIORS\STEERINGBEHAVIORS.CPP|C:\USERS\LIM\DESKTOP\AI\BUCKLAND_SOURCECODE\VS8 PROJECTS\BUCKLAND_CHAPTER3-STEERING BEHAVIORS\VEHICLE.CPP
C:\USERS\LIM\DESKTOP\AI\BUCKLAND_SOURCECODE\VS8 PROJECTS\BUCKLAND_CHAPTER3-STEERING BEHAVIORS\DEBUG\VEHICLE.SBR
C:\USERS\LIM\DESKTOP\AI\BUCKLAND_SOURCECODE\VS8 PROJECTS\BUCKLAND_CHAPTER3-STEERING BEHAVIORS\DEBUG\GAMEWORLD.SBR
C:\USERS\LIM\DESKTOP\AI\BUCKLAND_SOURCECODE\VS8 PROJECTS\BUCKLAND_CHAPTER3-STEERING BEHAVIORS\DEBUG\STEERINGBEHAVIORS.SBR
C:\USERS\LIM\DESKTOP\AI\BUCKLAND_SOURCECODE\VS8 PROJECTS\BUCKLAND_CHAPTER3-STEERING BEHAVIORS\DEBUG\MAIN.SBR
C:\USERS\LIM\DESKTOP\AI\BUCKLAND_SOURCECODE\VS8 PROJECTS\BUCKLAND_CHAPTER3-STEERING BEHAVIORS\DEBUG\GAMEWORLD.OBJ
C:\USERS\LIM\DESKTOP\AI\BUCKLAND_SOURCECODE\VS8 PROJECTS\BUCKLAND_CHAPTER3-STEERING BEHAVIORS\DEBUG\STEERINGBEHAVIORS.OBJ
C:\USERS\LIM\DESKTOP\AI\BUCKLAND_SOURCECODE\VS8 PROJECTS\BUCKLAND_CHAPTER3-STEERING BEHAVIORS\DEBUG\MAIN.OBJ
^C:\USERS\LIM\DESKTOP\AI\BUCKLAND_SOURCECODE\VS8 PROJECTS\BUCKLAND_CHAPTER3-STEERING BEHAVIORS\GAMEWORLD.CPP|C:\USERS\LIM\DESKTOP\AI\BUCKLAND_SOURCECODE\VS8 PROJECTS\BUCKLAND_CHAPTER3-STEERING BEHAVIORS\MAIN.CPP|C:\USERS\LIM\DESKTOP\AI\BUCKLAND_SOURCECODE\VS8 PROJECTS\BUCKLAND_CHAPTER3-STEERING BEHAVIORS\OBSTACLE.CPP|C:\USERS\LIM\DESKTOP\AI\BUCKLAND_SOURCECODE\VS8 PROJECTS\BUCKLAND_CHAPTER3-STEERING BEHAVIORS\PATH.CPP|C:\USERS\LIM\DESKTOP\AI\BUCKLAND_SOURCECODE\VS8 PROJECTS\BUCKLAND_CHAPTER3-STEERING BEHAVIORS\STEERINGBEHAVIORS.CPP|C:\USERS\LIM\DESKTOP\AI\BUCKLAND_SOURCECODE\VS8 PROJECTS\BUCKLAND_CHAPTER3-STEERING BEHAVIORS\VEHICLE.CPP|C:\USERS\LIM\DESKTOP\AI\BUCKLAND_SOURCECODE\VS8 PROJECTS\COMMON\MISC\CGDI.CPP
C:\USERS\LIM\DESKTOP\AI\BUCKLAND_SOURCECODE\VS8 PROJECTS\BUCKLAND_CHAPTER3-STEERING BEHAVIORS\DEBUG\VEHICLE.SBR
C:\USERS\LIM\DESKTOP\AI\BUCKLAND_SOURCECODE\VS8 PROJECTS\BUCKLAND_CHAPTER3-STEERING BEHAVIORS\DEBUG\CGDI.SBR
C:\USERS\LIM\DESKTOP\AI\BUCKLAND_SOURCECODE\VS8 PROJECTS\BUCKLAND_CHAPTER3-STEERING BEHAVIORS\DEBUG\CGDI.OBJ
C:\USERS\LIM\DESKTOP\AI\BUCKLAND_SOURCECODE\VS8 PROJECTS\BUCKLAND_CHAPTER3-STEERING BEHAVIORS\DEBUG\VEHICLE.OBJ
C:\USERS\LIM\DESKTOP\AI\BUCKLAND_SOURCECODE\VS8 PROJECTS\BUCKLAND_CHAPTER3-STEERING BEHAVIORS\DEBUG\MAIN.SBR
C:\USERS\LIM\DESKTOP\AI\BUCKLAND_SOURCECODE\VS8 PROJECTS\BUCKLAND_CHAPTER3-STEERING BEHAVIORS\DEBUG\STEERINGBEHAVIORS.SBR
C:\USERS\LIM\DESKTOP\AI\BUCKLAND_SOURCECODE\VS8 PROJECTS\BUCKLAND_CHAPTER3-STEERING BEHAVIORS\DEBUG\PATH.SBR
C:\USERS\LIM\DESKTOP\AI\BUCKLAND_SOURCECODE\VS8 PROJECTS\BUCKLAND_CHAPTER3-STEERING BEHAVIORS\DEBUG\OBSTACLE.SBR
C:\USERS\LIM\DESKTOP\AI\BUCKLAND_SOURCECODE\VS8 PROJECTS\BUCKLAND_CHAPTER3-STEERING BEHAVIORS\DEBUG\GAMEWORLD.SBR
C:\USERS\LIM\DESKTOP\AI\BUCKLAND_SOURCECODE\VS8 PROJECTS\BUCKLAND_CHAPTER3-STEERING BEHAVIORS\DEBUG\GAMEWORLD.OBJ
C:\USERS\LIM\DESKTOP\AI\BUCKLAND_SOURCECODE\VS8 PROJECTS\BUCKLAND_CHAPTER3-STEERING BEHAVIORS\DEBUG\OBSTACLE.OBJ
C:\USERS\LIM\DESKTOP\AI\BUCKLAND_SOURCECODE\VS8 PROJECTS\BUCKLAND_CHAPTER3-STEERING BEHAVIORS\DEBUG\PATH.OBJ
C:\USERS\LIM\DESKTOP\AI\BUCKLAND_SOURCECODE\VS8 PROJECTS\BUCKLAND_CHAPTER3-STEERING BEHAVIORS\DEBUG\STEERINGBEHAVIORS.OBJ
C:\USERS\LIM\DESKTOP\AI\BUCKLAND_SOURCECODE\VS8 PROJECTS\BUCKLAND_CHAPTER3-STEERING BEHAVIORS\DEBUG\MAIN.OBJ
^C:\USERS\LIM\DESKTOP\AI\BUCKLAND_SOURCECODE\VS8 PROJECTS\COMMON\2D\VECTOR2D.CPP|C:\USERS\LIM\DESKTOP\AI\BUCKLAND_SOURCECODE\VS8 PROJECTS\COMMON\MISC\CGDI.CPP|C:\USERS\LIM\DESKTOP\AI\BUCKLAND_SOURCECODE\VS8 PROJECTS\COMMON\MISC\INIFILELOADERBASE.CPP|C:\USERS\LIM\DESKTOP\AI\BUCKLAND_SOURCECODE\VS8 PROJECTS\COMMON\MISC\WINDOWUTILS.CPP|C:\USERS\LIM\DESKTOP\AI\BUCKLAND_SOURCECODE\VS8 PROJECTS\COMMON\TIME\PRECISIONTIMER.CPP|C:\USERS\LIM\DESKTOP\AI\BUCKLAND_SOURCECODE\VS8 PROJECTS\VER2 추격자 에너지 상태에 따른 도망자 움직임\GAMEWORLD.CPP|C:\USERS\LIM\DESKTOP\AI\BUCKLAND_SOURCECODE\VS8 PROJECTS\VER2 추격자 에너지 상태에 따른 도망자 움직임\MAIN.CPP|C:\USERS\LIM\DESKTOP\AI\BUCKLAND_SOURCECODE\VS8 PROJECTS\VER2 추격자 에너지 상태에 따른 도망자 움직임\OBSTACLE.CPP|C:\USERS\LIM\DESKTOP\AI\BUCKLAND_SOURCECODE\VS8 PROJECTS\VER2 추격자 에너지 상태에 따른 도망자 움직임\PARAMLOADER.CPP|C:\USERS\LIM\DESKTOP\AI\BUCKLAND_SOURCECODE\VS8 PROJECTS\VER2 추격자 에너지 상태에 따른 도망자 움직임\PATH.CPP|C:\USERS\LIM\DESKTOP\AI\BUCKLAND_SOURCECODE\VS8 PROJECTS\VER2 추격자 에너지 상태에 따른 도망자 움직임\STEERINGBEHAVIORS.CPP|C:\USERS\LIM\DESKTOP\AI\BUCKLAND_SOURCECODE\VS8 PROJECTS\VER2 추격자 에너지 상태에 따른 도망자 움직임\VEHICLE.CPP
C:\USERS\LIM\DESKTOP\AI\BUCKLAND_SOURCECODE\VS8 PROJECTS\VER2 추격자 에너지 상태에 따른 도망자 움직임\DEBUG\WINDOWUTILS.SBR
C:\USERS\LIM\DESKTOP\AI\BUCKLAND_SOURCECODE\VS8 PROJECTS\VER2 추격자 에너지 상태에 따른 도망자 움직임\DEBUG\VECTOR2D.SBR
C:\USERS\LIM\DESKTOP\AI\BUCKLAND_SOURCECODE\VS8 PROJECTS\VER2 추격자 에너지 상태에 따른 도망자 움직임\DEBUG\PRECISIONTIMER.SBR
C:\USERS\LIM\DESKTOP\AI\BUCKLAND_SOURCECODE\VS8 PROJECTS\VER2 추격자 에너지 상태에 따른 도망자 움직임\DEBUG\PATH.SBR
C:\USERS\LIM\DESKTOP\AI\BUCKLAND_SOURCECODE\VS8 PROJECTS\VER2 추격자 에너지 상태에 따른 도망자 움직임\DEBUG\PARAMLOADER.SBR
C:\USERS\LIM\DESKTOP\AI\BUCKLAND_SOURCECODE\VS8 PROJECTS\VER2 추격자 에너지 상태에 따른 도망자 움직임\DEBUG\OBSTACLE.SBR
C:\USERS\LIM\DESKTOP\AI\BUCKLAND_SOURCECODE\VS8 PROJECTS\VER2 추격자 에너지 상태에 따른 도망자 움직임\DEBUG\INIFILELOADERBASE.SBR
C:\USERS\LIM\DESKTOP\AI\BUCKLAND_SOURCECODE\VS8 PROJECTS\VER2 추격자 에너지 상태에 따른 도망자 움직임\DEBUG\CGDI.SBR
C:\USERS\LIM\DESKTOP\AI\BUCKLAND_SOURCECODE\VS8 PROJECTS\VER2 추격자 에너지 상태에 따른 도망자 움직임\DEBUG\VEHICLE.SBR
C:\USERS\LIM\DESKTOP\AI\BUCKLAND_SOURCECODE\VS8 PROJECTS\VER2 추격자 에너지 상태에 따른 도망자 움직임\DEBUG\STEERINGBEHAVIORS.SBR
C:\USERS\LIM\DESKTOP\AI\BUCKLAND_SOURCECODE\VS8 PROJECTS\VER2 추격자 에너지 상태에 따른 도망자 움직임\DEBUG\MAIN.SBR
C:\USERS\LIM\DESKTOP\AI\BUCKLAND_SOURCECODE\VS8 PROJECTS\VER2 추격자 에너지 상태에 따른 도망자 움직임\DEBUG\GAMEWORLD.SBR
C:\USERS\LIM\DESKTOP\AI\BUCKLAND_SOURCECODE\VS8 PROJECTS\VER2 추격자 에너지 상태에 따른 도망자 움직임\DEBUG\GAMEWORLD.OBJ
C:\USERS\LIM\DESKTOP\AI\BUCKLAND_SOURCECODE\VS8 PROJECTS\VER2 추격자 에너지 상태에 따른 도망자 움직임\DEBUG\MAIN.OBJ
C:\USERS\LIM\DESKTOP\AI\BUCKLAND_SOURCECODE\VS8 PROJECTS\VER2 추격자 에너지 상태에 따른 도망자 움직임\DEBUG\STEERINGBEHAVIORS.OBJ
C:\USERS\LIM\DESKTOP\AI\BUCKLAND_SOURCECODE\VS8 PROJECTS\VER2 추격자 에너지 상태에 따른 도망자 움직임\DEBUG\VEHICLE.OBJ
C:\USERS\LIM\DESKTOP\AI\BUCKLAND_SOURCECODE\VS8 PROJECTS\VER2 추격자 에너지 상태에 따른 도망자 움직임\DEBUG\CGDI.OBJ
C:\USERS\LIM\DESKTOP\AI\BUCKLAND_SOURCECODE\VS8 PROJECTS\VER2 추격자 에너지 상태에 따른 도망자 움직임\DEBUG\INIFILELOADERBASE.OBJ
C:\USERS\LIM\DESKTOP\AI\BUCKLAND_SOURCECODE\VS8 PROJECTS\VER2 추격자 에너지 상태에 따른 도망자 움직임\DEBUG\OBSTACLE.OBJ
C:\USERS\LIM\DESKTOP\AI\BUCKLAND_SOURCECODE\VS8 PROJECTS\VER2 추격자 에너지 상태에 따른 도망자 움직임\DEBUG\PARAMLOADER.OBJ
C:\USERS\LIM\DESKTOP\AI\BUCKLAND_SOURCECODE\VS8 PROJECTS\VER2 추격자 에너지 상태에 따른 도망자 움직임\DEBUG\PATH.OBJ
C:\USERS\LIM\DESKTOP\AI\BUCKLAND_SOURCECODE\VS8 PROJECTS\VER2 추격자 에너지 상태에 따른 도망자 움직임\DEBUG\PRECISIONTIMER.OBJ
C:\USERS\LIM\DESKTOP\AI\BUCKLAND_SOURCECODE\VS8 PROJECTS\VER2 추격자 에너지 상태에 따른 도망자 움직임\DEBUG\VECTOR2D.OBJ
C:\USERS\LIM\DESKTOP\AI\BUCKLAND_SOURCECODE\VS8 PROJECTS\VER2 추격자 에너지 상태에 따른 도망자 움직임\DEBUG\WINDOWUTILS.OBJ
^C:\USERS\LIM\DESKTOP\AI\BUCKLAND_SOURCECODE\VS8 PROJECTS\VER2 추격자 에너지 상태에 따른 도망자 움직임\GAMEWORLD.CPP
C:\USERS\LIM\DESKTOP\AI\BUCKLAND_SOURCECODE\VS8 PROJECTS\VER2 추격자 에너지 상태에 따른 도망자 움직임\DEBUG\VC100.PDB
C:\USERS\LIM\DESKTOP\AI\BUCKLAND_SOURCECODE\VS8 PROJECTS\VER2 추격자 에너지 상태에 따른 도망자 움직임\DEBUG\GAMEWORLD.SBR
C:\USERS\LIM\DESKTOP\AI\BUCKLAND_SOURCECODE\VS8 PROJECTS\VER2 추격자 에너지 상태에 따른 도망자 움직임\DEBUG\GAMEWORLD.OBJ
^C:\USERS\LIM\DESKTOP\AI\BUCKLAND_SOURCECODE\VS8 PROJECTS\VER2 추격자 에너지 상태에 따른 도망자 움직임\MAIN.CPP
C:\USERS\LIM\DESKTOP\AI\BUCKLAND_SOURCECODE\VS8 PROJECTS\VER2 추격자 에너지 상태에 따른 도망자 움직임\DEBUG\VC100.PDB
^C:\USERS\LIM\DESKTOP\AI\BUCKLAND_SOURCECODE\VS8 PROJECTS\VER2 추격자 에너지 상태에 따른 도망자 움직임\STEERINGBEHAVIORS.CPP
C:\USERS\LIM\DESKTOP\AI\BUCKLAND_SOURCECODE\VS8 PROJECTS\VER2 추격자 에너지 상태에 따른 도망자 움직임\DEBUG\VC100.PDB
^C:\USERS\LIM\DESKTOP\AI\BUCKLAND_SOURCECODE\VS8 PROJECTS\VER2 추격자 에너지 상태에 따른 도망자 움직임\VEHICLE.CPP
C:\USERS\LIM\DESKTOP\AI\BUCKLAND_SOURCECODE\VS8 PROJECTS\VER2 추격자 에너지 상태에 따른 도망자 움직임\DEBUG\VC100.PDB
C:\USERS\LIM\DESKTOP\AI\BUCKLAND_SOURCECODE\VS8 PROJECTS\VER2 추격자 에너지 상태에 따른 도망자 움직임\DEBUG\VEHICLE.SBR
C:\USERS\LIM\DESKTOP\AI\BUCKLAND_SOURCECODE\VS8 PROJECTS\VER2 추격자 에너지 상태에 따른 도망자 움직임\DEBUG\VEHICLE.OBJ
^C:\USERS\LIM\DESKTOP\AI\BUCKLAND_SOURCECODE\VS8 PROJECTS\VER2 추격자 에너지 상태에 따른 도망자 움직임\OBSTACLE.CPP
C:\USERS\LIM\DESKTOP\AI\BUCKLAND_SOURCECODE\VS8 PROJECTS\VER2 추격자 에너지 상태에 따른 도망자 움직임\DEBUG\VC100.PDB
^C:\USERS\LIM\DESKTOP\AI\BUCKLAND_SOURCECODE\VS8 PROJECTS\VER2 추격자 에너지 상태에 따른 도망자 움직임\PARAMLOADER.CPP
C:\USERS\LIM\DESKTOP\AI\BUCKLAND_SOURCECODE\VS8 PROJECTS\VER2 추격자 에너지 상태에 따른 도망자 움직임\DEBUG\VC100.PDB
^C:\USERS\LIM\DESKTOP\AI\BUCKLAND_SOURCECODE\VS8 PROJECTS\VER2 추격자 에너지 상태에 따른 도망자 움직임\PATH.CPP
C:\USERS\LIM\DESKTOP\AI\BUCKLAND_SOURCECODE\VS8 PROJECTS\VER2 추격자 에너지 상태에 따른 도망자 움직임\DEBUG\VC100.PDB
^C:\USERS\LIM\DESKTOP\AI\BUCKLAND_SOURCECODE\VS8 PROJECTS\VER2 추격자 에너지 상태에 따른 도망자 움직임\GAMEWORLD.CPP|C:\USERS\LIM\DESKTOP\AI\BUCKLAND_SOURCECODE\VS8 PROJECTS\VER2 추격자 에너지 상태에 따른 도망자 움직임\VEHICLE.CPP
C:\USERS\LIM\DESKTOP\AI\BUCKLAND_SOURCECODE\VS8 PROJECTS\VER2 추격자 에너지 상태에 따른 도망자 움직임\DEBUG\VEHICLE.SBR
C:\USERS\LIM\DESKTOP\AI\BUCKLAND_SOURCECODE\VS8 PROJECTS\VER2 추격자 에너지 상태에 따른 도망자 움직임\DEBUG\GAMEWORLD.SBR
C:\USERS\LIM\DESKTOP\AI\BUCKLAND_SOURCECODE\VS8 PROJECTS\VER2 추격자 에너지 상태에 따른 도망자 움직임\DEBUG\GAMEWORLD.OBJ
C:\USERS\LIM\DESKTOP\AI\BUCKLAND_SOURCECODE\VS8 PROJECTS\VER2 추격자 에너지 상태에 따른 도망자 움직임\DEBUG\VEHICLE.OBJ
^C:\USERS\LIM\DESKTOP\AI\BUCKLAND_SOURCECODE\VS8 PROJECTS\VER2 추격자 에너지 상태에 따른 도망자 움직임\GAMEWORLD.CPP|C:\USERS\LIM\DESKTOP\AI\BUCKLAND_SOURCECODE\VS8 PROJECTS\VER2 추격자 에너지 상태에 따른 도망자 움직임\MAIN.CPP|C:\USERS\LIM\DESKTOP\AI\BUCKLAND_SOURCECODE\VS8 PROJECTS\VER2 추격자 에너지 상태에 따른 도망자 움직임\STEERINGBEHAVIORS.CPP|C:\USERS\LIM\DESKTOP\AI\BUCKLAND_SOURCECODE\VS8 PROJECTS\VER2 추격자 에너지 상태에 따른 도망자 움직임\VEHICLE.CPP
C:\USERS\LIM\DESKTOP\AI\BUCKLAND_SOURCECODE\VS8 PROJECTS\VER2 추격자 에너지 상태에 따른 도망자 움직임\DEBUG\VEHICLE.SBR
C:\USERS\LIM\DESKTOP\AI\BUCKLAND_SOURCECODE\VS8 PROJECTS\VER2 추격자 에너지 상태에 따른 도망자 움직임\DEBUG\GAMEWORLD.SBR
C:\USERS\LIM\DESKTOP\AI\BUCKLAND_SOURCECODE\VS8 PROJECTS\VER2 추격자 에너지 상태에 따른 도망자 움직임\DEBUG\GAMEWORLD.OBJ
C:\USERS\LIM\DESKTOP\AI\BUCKLAND_SOURCECODE\VS8 PROJECTS\VER2 추격자 에너지 상태에 따른 도망자 움직임\DEBUG\VEHICLE.OBJ
C:\USERS\LIM\DESKTOP\AI\BUCKLAND_SOURCECODE\VS8 PROJECTS\VER2 추격자 에너지 상태에 따른 도망자 움직임\DEBUG\STEERINGBEHAVIORS.SBR
C:\USERS\LIM\DESKTOP\AI\BUCKLAND_SOURCECODE\VS8 PROJECTS\VER2 추격자 에너지 상태에 따른 도망자 움직임\DEBUG\STEERINGBEHAVIORS.OBJ
^C:\USERS\LIM\DESKTOP\AI\BUCKLAND_SOURCECODE\VS8 PROJECTS\1. 추격자 에너지 상태에 따른 도망자 움직임\GAMEWORLD.CPP|C:\USERS\LIM\DESKTOP\AI\BUCKLAND_SOURCECODE\VS8 PROJECTS\1. 추격자 에너지 상태에 따른 도망자 움직임\MAIN.CPP|C:\USERS\LIM\DESKTOP\AI\BUCKLAND_SOURCECODE\VS8 PROJECTS\1. 추격자 에너지 상태에 따른 도망자 움직임\OBSTACLE.CPP|C:\USERS\LIM\DESKTOP\AI\BUCKLAND_SOURCECODE\VS8 PROJECTS\1. 추격자 에너지 상태에 따른 도망자 움직임\PARAMLOADER.CPP|C:\USERS\LIM\DESKTOP\AI\BUCKLAND_SOURCECODE\VS8 PROJECTS\1. 추격자 에너지 상태에 따른 도망자 움직임\PATH.CPP|C:\USERS\LIM\DESKTOP\AI\BUCKLAND_SOURCECODE\VS8 PROJECTS\1. 추격자 에너지 상태에 따른 도망자 움직임\STEERINGBEHAVIORS.CPP|C:\USERS\LIM\DESKTOP\AI\BUCKLAND_SOURCECODE\VS8 PROJECTS\1. 추격자 에너지 상태에 따른 도망자 움직임\VEHICLE.CPP
C:\USERS\LIM\DESKTOP\AI\BUCKLAND_SOURCECODE\VS8 PROJECTS\1. 추격자 에너지 상태에 따른 도망자 움직임\DEBUG\PATH.SBR
C:\USERS\LIM\DESKTOP\AI\BUCKLAND_SOURCECODE\VS8 PROJECTS\1. 추격자 에너지 상태에 따른 도망자 움직임\DEBUG\PARAMLOADER.SBR
C:\USERS\LIM\DESKTOP\AI\BUCKLAND_SOURCECODE\VS8 PROJECTS\1. 추격자 에너지 상태에 따른 도망자 움직임\DEBUG\OBSTACLE.SBR
C:\USERS\LIM\DESKTOP\AI\BUCKLAND_SOURCECODE\VS8 PROJECTS\1. 추격자 에너지 상태에 따른 도망자 움직임\DEBUG\VEHICLE.SBR
C:\USERS\LIM\DESKTOP\AI\BUCKLAND_SOURCECODE\VS8 PROJECTS\1. 추격자 에너지 상태에 따른 도망자 움직임\DEBUG\STEERINGBEHAVIORS.SBR
C:\USERS\LIM\DESKTOP\AI\BUCKLAND_SOURCECODE\VS8 PROJECTS\1. 추격자 에너지 상태에 따른 도망자 움직임\DEBUG\MAIN.SBR
C:\USERS\LIM\DESKTOP\AI\BUCKLAND_SOURCECODE\VS8 PROJECTS\1. 추격자 에너지 상태에 따른 도망자 움직임\DEBUG\GAMEWORLD.SBR
C:\USERS\LIM\DESKTOP\AI\BUCKLAND_SOURCECODE\VS8 PROJECTS\1. 추격자 에너지 상태에 따른 도망자 움직임\DEBUG\GAMEWORLD.OBJ
C:\USERS\LIM\DESKTOP\AI\BUCKLAND_SOURCECODE\VS8 PROJECTS\1. 추격자 에너지 상태에 따른 도망자 움직임\DEBUG\MAIN.OBJ
C:\USERS\LIM\DESKTOP\AI\BUCKLAND_SOURCECODE\VS8 PROJECTS\1. 추격자 에너지 상태에 따른 도망자 움직임\DEBUG\STEERINGBEHAVIORS.OBJ
C:\USERS\LIM\DESKTOP\AI\BUCKLAND_SOURCECODE\VS8 PROJECTS\1. 추격자 에너지 상태에 따른 도망자 움직임\DEBUG\VEHICLE.OBJ
C:\USERS\LIM\DESKTOP\AI\BUCKLAND_SOURCECODE\VS8 PROJECTS\1. 추격자 에너지 상태에 따른 도망자 움직임\DEBUG\OBSTACLE.OBJ
C:\USERS\LIM\DESKTOP\AI\BUCKLAND_SOURCECODE\VS8 PROJECTS\1. 추격자 에너지 상태에 따른 도망자 움직임\DEBUG\PARAMLOADER.OBJ
C:\USERS\LIM\DESKTOP\AI\BUCKLAND_SOURCECODE\VS8 PROJECTS\1. 추격자 에너지 상태에 따른 도망자 움직임\DEBUG\PATH.OBJ
^C:\USERS\LIM\DESKTOP\AI\BUCKLAND_SOURCECODE\VS8 PROJECTS\1. 추격자 에너지 상태에 따른 도망자 움직임\GAMEWORLD.CPP
C:\USERS\LIM\DESKTOP\AI\BUCKLAND_SOURCECODE\VS8 PROJECTS\1. 추격자 에너지 상태에 따른 도망자 움직임\DEBUG\VC100.PDB
C:\USERS\LIM\DESKTOP\AI\BUCKLAND_SOURCECODE\VS8 PROJECTS\1. 추격자 에너지 상태에 따른 도망자 움직임\DEBUG\GAMEWORLD.SBR
C:\USERS\LIM\DESKTOP\AI\BUCKLAND_SOURCECODE\VS8 PROJECTS\1. 추격자 에너지 상태에 따른 도망자 움직임\DEBUG\GAMEWORLD.OBJ
^C:\USERS\LIM\DESKTOP\AI\BUCKLAND_SOURCECODE\VS8 PROJECTS\1. 추격자 에너지 상태에 따른 도망자 움직임\MAIN.CPP
C:\USERS\LIM\DESKTOP\AI\BUCKLAND_SOURCECODE\VS8 PROJECTS\1. 추격자 에너지 상태에 따른 도망자 움직임\DEBUG\VC100.PDB
^C:\USERS\LIM\DESKTOP\AI\BUCKLAND_SOURCECODE\VS8 PROJECTS\1. 추격자 에너지 상태에 따른 도망자 움직임\STEERINGBEHAVIORS.CPP
C:\USERS\LIM\DESKTOP\AI\BUCKLAND_SOURCECODE\VS8 PROJECTS\1. 추격자 에너지 상태에 따른 도망자 움직임\DEBUG\VC100.PDB
^C:\USERS\LIM\DESKTOP\AI\BUCKLAND_SOURCECODE\VS8 PROJECTS\1. 추격자 에너지 상태에 따른 도망자 움직임\VEHICLE.CPP
C:\USERS\LIM\DESKTOP\AI\BUCKLAND_SOURCECODE\VS8 PROJECTS\1. 추격자 에너지 상태에 따른 도망자 움직임\DEBUG\VC100.PDB
C:\USERS\LIM\DESKTOP\AI\BUCKLAND_SOURCECODE\VS8 PROJECTS\1. 추격자 에너지 상태에 따른 도망자 움직임\DEBUG\VEHICLE.SBR
C:\USERS\LIM\DESKTOP\AI\BUCKLAND_SOURCECODE\VS8 PROJECTS\1. 추격자 에너지 상태에 따른 도망자 움직임\DEBUG\VEHICLE.OBJ
^C:\USERS\LIM\DESKTOP\AI\BUCKLAND_SOURCECODE\VS8 PROJECTS\1. 추격자 에너지 상태에 따른 도망자 움직임\OBSTACLE.CPP
C:\USERS\LIM\DESKTOP\AI\BUCKLAND_SOURCECODE\VS8 PROJECTS\1. 추격자 에너지 상태에 따른 도망자 움직임\DEBUG\VC100.PDB
^C:\USERS\LIM\DESKTOP\AI\BUCKLAND_SOURCECODE\VS8 PROJECTS\1. 추격자 에너지 상태에 따른 도망자 움직임\PARAMLOADER.CPP
C:\USERS\LIM\DESKTOP\AI\BUCKLAND_SOURCECODE\VS8 PROJECTS\1. 추격자 에너지 상태에 따른 도망자 움직임\DEBUG\VC100.PDB
^C:\USERS\LIM\DESKTOP\AI\BUCKLAND_SOURCECODE\VS8 PROJECTS\1. 추격자 에너지 상태에 따른 도망자 움직임\PATH.CPP
C:\USERS\LIM\DESKTOP\AI\BUCKLAND_SOURCECODE\VS8 PROJECTS\1. 추격자 에너지 상태에 따른 도망자 움직임\DEBUG\VC100.PDB
^C:\USERS\LIM\DESKTOP\AI\BUCKLAND_SOURCECODE\VS8 PROJECTS\1. 추격자 에너지 상태에 따른 도망자 움직임\GAMEWORLD.CPP|C:\USERS\LIM\DESKTOP\AI\BUCKLAND_SOURCECODE\VS8 PROJECTS\1. 추격자 에너지 상태에 따른 도망자 움직임\VEHICLE.CPP
C:\USERS\LIM\DESKTOP\AI\BUCKLAND_SOURCECODE\VS8 PROJECTS\1. 추격자 에너지 상태에 따른 도망자 움직임\DEBUG\VEHICLE.SBR
C:\USERS\LIM\DESKTOP\AI\BUCKLAND_SOURCECODE\VS8 PROJECTS\1. 추격자 에너지 상태에 따른 도망자 움직임\DEBUG\GAMEWORLD.SBR
C:\USERS\LIM\DESKTOP\AI\BUCKLAND_SOURCECODE\VS8 PROJECTS\1. 추격자 에너지 상태에 따른 도망자 움직임\DEBUG\GAMEWORLD.OBJ
C:\USERS\LIM\DESKTOP\AI\BUCKLAND_SOURCECODE\VS8 PROJECTS\1. 추격자 에너지 상태에 따른 도망자 움직임\DEBUG\VEHICLE.OBJ
^C:\USERS\LIM\DESKTOP\AI\BUCKLAND_SOURCECODE\VS8 PROJECTS\1. 추격자 에너지 상태에 따른 도망자 움직임\GAMEWORLD.CPP|C:\USERS\LIM\DESKTOP\AI\BUCKLAND_SOURCECODE\VS8 PROJECTS\1. 추격자 에너지 상태에 따른 도망자 움직임\MAIN.CPP|C:\USERS\LIM\DESKTOP\AI\BUCKLAND_SOURCECODE\VS8 PROJECTS\1. 추격자 에너지 상태에 따른 도망자 움직임\STEERINGBEHAVIORS.CPP|C:\USERS\LIM\DESKTOP\AI\BUCKLAND_SOURCECODE\VS8 PROJECTS\1. 추격자 에너지 상태에 따른 도망자 움직임\VEHICLE.CPP
C:\USERS\LIM\DESKTOP\AI\BUCKLAND_SOURCECODE\VS8 PROJECTS\1. 추격자 에너지 상태에 따른 도망자 움직임\DEBUG\VEHICLE.SBR
C:\USERS\LIM\DESKTOP\AI\BUCKLAND_SOURCECODE\VS8 PROJECTS\1. 추격자 에너지 상태에 따른 도망자 움직임\DEBUG\VEHICLE.OBJ
C:\USERS\LIM\DESKTOP\AI\BUCKLAND_SOURCECODE\VS8 PROJECTS\1. 추격자 에너지 상태에 따른 도망자 움직임\DEBUG\MAIN.SBR
C:\USERS\LIM\DESKTOP\AI\BUCKLAND_SOURCECODE\VS8 PROJECTS\1. 추격자 에너지 상태에 따른 도망자 움직임\DEBUG\STEERINGBEHAVIORS.SBR
C:\USERS\LIM\DESKTOP\AI\BUCKLAND_SOURCECODE\VS8 PROJECTS\1. 추격자 에너지 상태에 따른 도망자 움직임\DEBUG\GAMEWORLD.SBR
C:\USERS\LIM\DESKTOP\AI\BUCKLAND_SOURCECODE\VS8 PROJECTS\1. 추격자 에너지 상태에 따른 도망자 움직임\DEBUG\GAMEWORLD.OBJ
C:\USERS\LIM\DESKTOP\AI\BUCKLAND_SOURCECODE\VS8 PROJECTS\1. 추격자 에너지 상태에 따른 도망자 움직임\DEBUG\STEERINGBEHAVIORS.OBJ
C:\USERS\LIM\DESKTOP\AI\BUCKLAND_SOURCECODE\VS8 PROJECTS\1. 추격자 에너지 상태에 따른 도망자 움직임\DEBUG\MAIN.OBJ
