^C:\USERS\LIM\DESKTOP\AI\BUCKLAND_SOURCECODE\VS8 PROJECTS\BUCKLAND_CHAPTER3-STEERING BEHAVIORS\DEBUG\CGDI.OBJ|C:\USERS\LIM\DESKTOP\AI\BUCKLAND_SOURCECODE\VS8 PROJECTS\BUCKLAND_CHAPTER3-STEERING BEHAVIORS\DEBUG\GAMEWORLD.OBJ|C:\USERS\LIM\DESKTOP\AI\BUCKLAND_SOURCECODE\VS8 PROJECTS\BUCKLAND_CHAPTER3-STEERING BEHAVIORS\DEBUG\INIFILELOADERBASE.OBJ|C:\USERS\LIM\DESKTOP\AI\BUCKLAND_SOURCECODE\VS8 PROJECTS\BUCKLAND_CHAPTER3-STEERING BEHAVIORS\DEBUG\MAIN.OBJ|C:\USERS\LIM\DESKTOP\AI\BUCKLAND_SOURCECODE\VS8 PROJECTS\BUCKLAND_CHAPTER3-STEERING BEHAVIORS\DEBUG\OBSTACLE.OBJ|C:\USERS\LIM\DESKTOP\AI\BUCKLAND_SOURCECODE\VS8 PROJECTS\BUCKLAND_CHAPTER3-STEERING BEHAVIORS\DEBUG\PARAMLOADER.OBJ|C:\USERS\LIM\DESKTOP\AI\BUCKLAND_SOURCECODE\VS8 PROJECTS\BUCKLAND_CHAPTER3-STEERING BEHAVIORS\DEBUG\PATH.OBJ|C:\USERS\LIM\DESKTOP\AI\BUCKLAND_SOURCECODE\VS8 PROJECTS\BUCKLAND_CHAPTER3-STEERING BEHAVIORS\DEBUG\PRECISIONTIMER.OBJ|C:\USERS\LIM\DESKTOP\AI\BUCKLAND_SOURCECODE\VS8 PROJECTS\BUCKLAND_CHAPTER3-STEERING BEHAVIORS\DEBUG\SCRIPT1.RES|C:\USERS\LIM\DESKTOP\AI\BUCKLAND_SOURCECODE\VS8 PROJECTS\BUCKLAND_CHAPTER3-STEERING BEHAVIORS\DEBUG\STEERING.EXE.EMBED.MANIFEST.RES|C:\USERS\LIM\DESKTOP\AI\BUCKLAND_SOURCECODE\VS8 PROJECTS\BUCKLAND_CHAPTER3-STEERING BEHAVIORS\DEBUG\STEERINGBEHAVIORS.OBJ|C:\USERS\LIM\DESKTOP\AI\BUCKLAND_SOURCECODE\VS8 PROJECTS\BUCKLAND_CHAPTER3-STEERING BEHAVIORS\DEBUG\VECTOR2D.OBJ|C:\USERS\LIM\DESKTOP\AI\BUCKLAND_SOURCECODE\VS8 PROJECTS\BUCKLAND_CHAPTER3-STEERING BEHAVIORS\DEBUG\VEHICLE.OBJ|C:\USERS\LIM\DESKTOP\AI\BUCKLAND_SOURCECODE\VS8 PROJECTS\BUCKLAND_CHAPTER3-STEERING BEHAVIORS\DEBUG\WINDOWUTILS.OBJ
C:\USERS\LIM\DESKTOP\AI\BUCKLAND_SOURCECODE\VS8 PROJECTS\BUCKLAND_CHAPTER3-STEERING BEHAVIORS\DEBUG\STEERING.ILK
C:\USERS\LIM\DESKTOP\AI\BUCKLAND_SOURCECODE\VS8 PROJECTS\BUCKLAND_CHAPTER3-STEERING BEHAVIORS\DEBUG\STEERING.EXE
C:\USERS\LIM\DESKTOP\AI\BUCKLAND_SOURCECODE\VS8 PROJECTS\BUCKLAND_CHAPTER3-STEERING BEHAVIORS\DEBUG\STEERING.EXE.INTERMEDIATE.MANIFEST
C:\USERS\LIM\DESKTOP\AI\BUCKLAND_SOURCECODE\VS8 PROJECTS\BUCKLAND_CHAPTER3-STEERING BEHAVIORS\DEBUG\STEERING.PDB
^C:\USERS\LIM\DESKTOP\AI\BUCKLAND_SOURCECODE\VS8 PROJECTS\VER2 추격자 에너지 상태에 따른 도망자 움직임\DEBUG\CGDI.OBJ|C:\USERS\LIM\DESKTOP\AI\BUCKLAND_SOURCECODE\VS8 PROJECTS\VER2 추격자 에너지 상태에 따른 도망자 움직임\DEBUG\GAMEWORLD.OBJ|C:\USERS\LIM\DESKTOP\AI\BUCKLAND_SOURCECODE\VS8 PROJECTS\VER2 추격자 에너지 상태에 따른 도망자 움직임\DEBUG\INIFILELOADERBASE.OBJ|C:\USERS\LIM\DESKTOP\AI\BUCKLAND_SOURCECODE\VS8 PROJECTS\VER2 추격자 에너지 상태에 따른 도망자 움직임\DEBUG\MAIN.OBJ|C:\USERS\LIM\DESKTOP\AI\BUCKLAND_SOURCECODE\VS8 PROJECTS\VER2 추격자 에너지 상태에 따른 도망자 움직임\DEBUG\OBSTACLE.OBJ|C:\USERS\LIM\DESKTOP\AI\BUCKLAND_SOURCECODE\VS8 PROJECTS\VER2 추격자 에너지 상태에 따른 도망자 움직임\DEBUG\PARAMLOADER.OBJ|C:\USERS\LIM\DESKTOP\AI\BUCKLAND_SOURCECODE\VS8 PROJECTS\VER2 추격자 에너지 상태에 따른 도망자 움직임\DEBUG\PATH.OBJ|C:\USERS\LIM\DESKTOP\AI\BUCKLAND_SOURCECODE\VS8 PROJECTS\VER2 추격자 에너지 상태에 따른 도망자 움직임\DEBUG\PRECISIONTIMER.OBJ|C:\USERS\LIM\DESKTOP\AI\BUCKLAND_SOURCECODE\VS8 PROJECTS\VER2 추격자 에너지 상태에 따른 도망자 움직임\DEBUG\SCRIPT1.RES|C:\USERS\LIM\DESKTOP\AI\BUCKLAND_SOURCECODE\VS8 PROJECTS\VER2 추격자 에너지 상태에 따른 도망자 움직임\DEBUG\STEERING.EXE.EMBED.MANIFEST.RES|C:\USERS\LIM\DESKTOP\AI\BUCKLAND_SOURCECODE\VS8 PROJECTS\VER2 추격자 에너지 상태에 따른 도망자 움직임\DEBUG\STEERINGBEHAVIORS.OBJ|C:\USERS\LIM\DESKTOP\AI\BUCKLAND_SOURCECODE\VS8 PROJECTS\VER2 추격자 에너지 상태에 따른 도망자 움직임\DEBUG\VECTOR2D.OBJ|C:\USERS\LIM\DESKTOP\AI\BUCKLAND_SOURCECODE\VS8 PROJECTS\VER2 추격자 에너지 상태에 따른 도망자 움직임\DEBUG\VEHICLE.OBJ|C:\USERS\LIM\DESKTOP\AI\BUCKLAND_SOURCECODE\VS8 PROJECTS\VER2 추격자 에너지 상태에 따른 도망자 움직임\DEBUG\WINDOWUTILS.OBJ
C:\USERS\LIM\DESKTOP\AI\BUCKLAND_SOURCECODE\VS8 PROJECTS\VER2 추격자 에너지 상태에 따른 도망자 움직임\DEBUG\STEERING.ILK
C:\USERS\LIM\DESKTOP\AI\BUCKLAND_SOURCECODE\VS8 PROJECTS\VER2 추격자 에너지 상태에 따른 도망자 움직임\DEBUG\STEERING.EXE
C:\USERS\LIM\DESKTOP\AI\BUCKLAND_SOURCECODE\VS8 PROJECTS\VER2 추격자 에너지 상태에 따른 도망자 움직임\DEBUG\STEERING.EXE.INTERMEDIATE.MANIFEST
C:\USERS\LIM\DESKTOP\AI\BUCKLAND_SOURCECODE\VS8 PROJECTS\VER2 추격자 에너지 상태에 따른 도망자 움직임\DEBUG\STEERING.PDB
^C:\USERS\LIM\DESKTOP\AI\BUCKLAND_SOURCECODE\VS8 PROJECTS\1. 추격자 에너지 상태에 따른 도망자 움직임\DEBUG\CGDI.OBJ|C:\USERS\LIM\DESKTOP\AI\BUCKLAND_SOURCECODE\VS8 PROJECTS\1. 추격자 에너지 상태에 따른 도망자 움직임\DEBUG\GAMEWORLD.OBJ|C:\USERS\LIM\DESKTOP\AI\BUCKLAND_SOURCECODE\VS8 PROJECTS\1. 추격자 에너지 상태에 따른 도망자 움직임\DEBUG\INIFILELOADERBASE.OBJ|C:\USERS\LIM\DESKTOP\AI\BUCKLAND_SOURCECODE\VS8 PROJECTS\1. 추격자 에너지 상태에 따른 도망자 움직임\DEBUG\MAIN.OBJ|C:\USERS\LIM\DESKTOP\AI\BUCKLAND_SOURCECODE\VS8 PROJECTS\1. 추격자 에너지 상태에 따른 도망자 움직임\DEBUG\OBSTACLE.OBJ|C:\USERS\LIM\DESKTOP\AI\BUCKLAND_SOURCECODE\VS8 PROJECTS\1. 추격자 에너지 상태에 따른 도망자 움직임\DEBUG\PARAMLOADER.OBJ|C:\USERS\LIM\DESKTOP\AI\BUCKLAND_SOURCECODE\VS8 PROJECTS\1. 추격자 에너지 상태에 따른 도망자 움직임\DEBUG\PATH.OBJ|C:\USERS\LIM\DESKTOP\AI\BUCKLAND_SOURCECODE\VS8 PROJECTS\1. 추격자 에너지 상태에 따른 도망자 움직임\DEBUG\PRECISIONTIMER.OBJ|C:\USERS\LIM\DESKTOP\AI\BUCKLAND_SOURCECODE\VS8 PROJECTS\1. 추격자 에너지 상태에 따른 도망자 움직임\DEBUG\SCRIPT1.RES|C:\USERS\LIM\DESKTOP\AI\BUCKLAND_SOURCECODE\VS8 PROJECTS\1. 추격자 에너지 상태에 따른 도망자 움직임\DEBUG\STEERING.EXE.EMBED.MANIFEST.RES|C:\USERS\LIM\DESKTOP\AI\BUCKLAND_SOURCECODE\VS8 PROJECTS\1. 추격자 에너지 상태에 따른 도망자 움직임\DEBUG\STEERINGBEHAVIORS.OBJ|C:\USERS\LIM\DESKTOP\AI\BUCKLAND_SOURCECODE\VS8 PROJECTS\1. 추격자 에너지 상태에 따른 도망자 움직임\DEBUG\VECTOR2D.OBJ|C:\USERS\LIM\DESKTOP\AI\BUCKLAND_SOURCECODE\VS8 PROJECTS\1. 추격자 에너지 상태에 따른 도망자 움직임\DEBUG\VEHICLE.OBJ|C:\USERS\LIM\DESKTOP\AI\BUCKLAND_SOURCECODE\VS8 PROJECTS\1. 추격자 에너지 상태에 따른 도망자 움직임\DEBUG\WINDOWUTILS.OBJ
C:\USERS\LIM\DESKTOP\AI\BUCKLAND_SOURCECODE\VS8 PROJECTS\1. 추격자 에너지 상태에 따른 도망자 움직임\DEBUG\STEERING.ILK
C:\USERS\LIM\DESKTOP\AI\BUCKLAND_SOURCECODE\VS8 PROJECTS\1. 추격자 에너지 상태에 따른 도망자 움직임\DEBUG\STEERING.EXE
C:\USERS\LIM\DESKTOP\AI\BUCKLAND_SOURCECODE\VS8 PROJECTS\1. 추격자 에너지 상태에 따른 도망자 움직임\DEBUG\STEERING.EXE.INTERMEDIATE.MANIFEST
C:\USERS\LIM\DESKTOP\AI\BUCKLAND_SOURCECODE\VS8 PROJECTS\1. 추격자 에너지 상태에 따른 도망자 움직임\DEBUG\STEERING.PDB
